\relax 
\providecommand\hyper@newdestlabel[2]{}
\providecommand\HyperFirstAtBeginDocument{\AtBeginDocument}
\HyperFirstAtBeginDocument{\ifx\hyper@anchor\@undefined
\global\let\oldcontentsline\contentsline
\gdef\contentsline#1#2#3#4{\oldcontentsline{#1}{#2}{#3}}
\global\let\oldnewlabel\newlabel
\gdef\newlabel#1#2{\newlabelxx{#1}#2}
\gdef\newlabelxx#1#2#3#4#5#6{\oldnewlabel{#1}{{#2}{#3}}}
\AtEndDocument{\ifx\hyper@anchor\@undefined
\let\contentsline\oldcontentsline
\let\newlabel\oldnewlabel
\fi}
\fi}
\global\let\hyper@last\relax 
\gdef\HyperFirstAtBeginDocument#1{#1}
\providecommand\HyField@AuxAddToFields[1]{}
\providecommand\HyField@AuxAddToCoFields[2]{}
\providecommand \oddpage@label [2]{}
\@writefile{toc}{\contentsline {section}{\numberline {1}A Way Too In Depth Analysis Of Shake Of The Day}{1}{section.1}}
\newlabel{a-way-too-in-depth-analysis-of-shake-of-the-day}{{1}{1}{A Way Too In Depth Analysis Of Shake Of The Day}{section.1}{}}
\@writefile{toc}{\contentsline {section}{\numberline {2}Going Beyond}{3}{section.2}}
\newlabel{going-beyond}{{2}{3}{Going Beyond}{section.2}{}}
\@writefile{toc}{\contentsline {section}{\numberline {3}A Note About Efficiency}{4}{section.3}}
\newlabel{a-note-about-efficiency}{{3}{4}{A Note About Efficiency}{section.3}{}}
